,Black,Other,White,p,test
n,13,9,16,,
PlasmaMIP3a (median [IQR])," 2.92 [2.47, 4.34]"," 4.42 [4.34, 4.44]"," 4.44 [2.45, 4.49]",0.048,nonnorm
PlasmaTNFa (median [IQR]),"-1.00 [-1.00, -1.00]","-1.00 [-1.00, -1.00]","-1.00 [-1.00, -1.00]",<0.001,nonnorm
PlasmaIL6 (median [IQR]),"-0.96 [-0.96, -0.96]","-0.96 [-0.96, -0.96]","-0.96 [-0.96, -0.96]",0.843,nonnorm
PlasmaIL8 (median [IQR]),"-0.66 [-0.66, 3.96]"," 4.05 [3.96, 4.44]"," 4.02 [2.70, 4.06]",0.027,nonnorm
PlasmaIL1b (median [IQR]),"-1.01 [-2.51, 0.35]","-1.01 [-2.51, 0.06]","-1.82 [-2.51, -0.70]",0.762,nonnorm
PlasmaElafin (median [IQR])," 9.59 [9.27, 9.99]"," 9.22 [9.20, 9.84]"," 9.36 [9.19, 9.77]",0.776,nonnorm
PlasmaSLPI (median [IQR]),"10.70 [10.58, 10.81]","10.57 [10.45, 10.62]","10.66 [10.51, 10.76]",0.253,nonnorm
PlasmaCathepsinB (median [IQR]),"10.45 [10.35, 10.57]","10.39 [10.15, 10.48]","10.35 [10.23, 10.57]",0.606,nonnorm
PlasmaTSP1 (median [IQR]),"15.67 [15.50, 15.75]","15.77 [15.33, 16.07]","15.60 [15.35, 15.95]",0.733,nonnorm
PlasmaHBD2 (median [IQR])," 5.77 [1.13, 7.76]"," 7.40 [5.22, 9.82]"," 7.31 [5.48, 9.43]",0.121,nonnorm
PlasmaMMP1 (median [IQR])," 6.73 [4.63, 7.54]"," 6.69 [6.50, 7.67]"," 7.10 [6.85, 7.49]",0.86,nonnorm
PlasmaMMP2 (median [IQR]),"11.89 [11.68, 12.03]","11.99 [11.69, 12.10]","12.03 [11.96, 12.07]",0.446,nonnorm
PlasmaMMP7 (median [IQR])," 7.07 [6.86, 7.34]"," 6.88 [6.76, 7.16]"," 6.70 [6.53, 7.02]",0.074,nonnorm
PlasmaMMP8 (median [IQR])," 8.15 [7.58, 8.84]"," 8.42 [8.28, 9.42]"," 8.79 [8.11, 9.47]",0.53,nonnorm
PlasmaMMP9 (median [IQR]),"11.32 [10.80, 11.93]","11.83 [10.79, 12.25]","11.38 [10.85, 11.91]",0.805,nonnorm
PlasmaTIMP1 (median [IQR]),"11.40 [11.04, 11.76]","11.57 [11.26, 11.65]","11.72 [11.48, 11.92]",0.135,nonnorm
PlasmaTIMP2 (median [IQR]),"10.92 [10.62, 11.00]","11.04 [10.97, 11.17]","11.09 [10.90, 11.27]",0.153,nonnorm
PlasmaIL1a (median [IQR]),"-0.13 [-0.13, -0.13]","-0.13 [-0.13, -0.13]","-0.13 [-0.13, -0.13]",0.257,nonnorm
PlasmaMCP1 (median [IQR])," 4.82 [4.61, 5.19]"," 4.81 [4.57, 5.04]"," 4.84 [4.57, 5.29]",0.724,nonnorm
PlasmaIP10 (median [IQR])," 1.88 [0.59, 4.40]"," 0.59 [0.59, 0.59]"," 0.59 [0.59, 1.08]",0.076,nonnorm
PlasmaTGFB (median [IQR])," 4.22 [0.40, 5.30]"," 4.48 [3.76, 5.21]"," 4.98 [4.44, 5.32]",0.534,nonnorm
PlasmaCRP (median [IQR]),"15.42 [14.11, 15.81]","14.55 [14.04, 15.28]","14.32 [13.77, 14.80]",0.271,nonnorm
