"","PlasmaMIP3a","PlasmaTNFa","PlasmaIL6","PlasmaIL8","PlasmaIL1b","PlasmaElafin","PlasmaSLPI","PlasmaCathepsinB","PlasmaTSP1","PlasmaHBD2","PlasmaMMP1","PlasmaMMP2","PlasmaMMP7","PlasmaMMP8","PlasmaMMP9","PlasmaTIMP1","PlasmaTIMP2","PlasmaIL1a","PlasmaMCP1","PlasmaIP10","PlasmaTGF-B","PlasmaCRP"
"statistic",4.60341011956012,-4.49965565177417,-0.00115072859123125,2.97712789029563,-0.898240092931513,-1.26179085101597,-1.40921335716726,-1.34573842074595,0.931333380749971,1.23482765146904,0.369886642555749,0.0259003329334377,-2.48026833833096,-2.26857468652546,0.302201518040337,0.49015093844817,0.512215028609152,-1.74175621718766,-1.17691292386667,-2.86816708858612,NA,-0.290912318860435
"parameter",36,36,36,36,36,36,36,23,30,36,36,36,36,36,36,36,36,36,36,36,4,36
"p.value",5.01369522013547e-05,6.85273798458474e-05,0.999088204760606,0.00517749629872077,0.3750261445746,0.215138410099677,0.167352111896812,0.191503812553505,0.359115939042537,0.224893824223723,0.713634128495427,0.979479877008055,0.0179404140388469,0.0293893307705116,0.764237561306333,0.627001161020034,0.611628836747854,0.0900908522640968,0.246953411452636,0.00686300241196029,NA,0.772787868837064
"estimate",0.60871550224029,-0.599970614403822,-0.000191788095011302,0.444479698573898,-0.14805674496811,-0.205796975168291,-0.228647070763187,-0.27017080273923,0.167631361287935,0.201579868168918,0.0615309620271939,0.00431668193704008,-0.382024276745916,-0.353660857619993,0.0503031548971819,0.0814205924816478,0.0850597807196747,-0.278783731987608,-0.192484125819721,-0.431284390024383,NA,-0.0484284962456297
"null.value",0,0,0,0,0,0,0,0,0,0,0,0,0,0,0,0,0,0,0,0,0,0
"alternative",two.sided,two.sided,two.sided,two.sided,two.sided,two.sided,two.sided,two.sided,two.sided,two.sided,two.sided,two.sided,two.sided,two.sided,two.sided,two.sided,two.sided,two.sided,two.sided,two.sided,two.sided,two.sided
"method",Pearson's product-moment correlation,Pearson's product-moment correlation,Pearson's product-moment correlation,Pearson's product-moment correlation,Pearson's product-moment correlation,Pearson's product-moment correlation,Pearson's product-moment correlation,Pearson's product-moment correlation,Pearson's product-moment correlation,Pearson's product-moment correlation,Pearson's product-moment correlation,Pearson's product-moment correlation,Pearson's product-moment correlation,Pearson's product-moment correlation,Pearson's product-moment correlation,Pearson's product-moment correlation,Pearson's product-moment correlation,Pearson's product-moment correlation,Pearson's product-moment correlation,Pearson's product-moment correlation,Pearson's product-moment correlation,Pearson's product-moment correlation
"data.name",X[[i]] and as.numeric(test$status),X[[i]] and as.numeric(test$status),X[[i]] and as.numeric(test$status),X[[i]] and as.numeric(test$status),X[[i]] and as.numeric(test$status),X[[i]] and as.numeric(test$status),X[[i]] and as.numeric(test$status),X[[i]] and as.numeric(test$status),X[[i]] and as.numeric(test$status),X[[i]] and as.numeric(test$status),X[[i]] and as.numeric(test$status),X[[i]] and as.numeric(test$status),X[[i]] and as.numeric(test$status),X[[i]] and as.numeric(test$status),X[[i]] and as.numeric(test$status),X[[i]] and as.numeric(test$status),X[[i]] and as.numeric(test$status),X[[i]] and as.numeric(test$status),X[[i]] and as.numeric(test$status),X[[i]] and as.numeric(test$status),X[[i]] and as.numeric(test$status),X[[i]] and as.numeric(test$status)
"conf.int",c(0.358866139174669  0.777165410719457),c(-0.77165085742044  -0.346804595353083),c(-0.319855532387945  0.319511156704182),c(0.145466010593503  0.669090182129311),c(-0.446601863568244  0.18015350560733),c(-0.493043090668571  0.121906598924489),c(-0.510980480024449  0.0982152984540211),c(-0.601129432159743  0.139894197842005),c(-0.192303119374322  0.48781173779509),c(-0.126238515057602  0.48970573895922),c(-0.263332250191099  0.373860325860487),c(-0.315802471533681  0.323553542416759),c(-0.625337199211889  -0.0710135835355133),c(-0.604948988850441  -0.0383086600689106),c(-0.273782925700878  0.364130891519121),c(-0.244630195043077  0.390928543513971),c(-0.241181838220462  0.394028631998496),c(-0.54949473247111  0.044901343988889),c(-0.482478653386742  0.135539513815731),c(-0.659974174826524  -0.129448702374218),c(NA  NA),c(-0.36249970909366  0.275520406320514)
