"","Black","Other","White","p","test"
"n","       13","        9","       16","",""
"CVLMIP3a (median [IQR])","    71.89 [0.34, 128.17]","   199.33 [34.93, 302.06]","    60.67 [18.19, 239.57]"," 0.293","nonnorm"
"CVLTNFa (median [IQR])","    50.71 [33.13, 70.92]","    42.09 [29.66, 80.78]","    87.56 [10.03, 137.46]"," 0.400","nonnorm"
"CVLIL6 (median [IQR])","     4.65 [1.67, 8.70]","    37.59 [5.44, 209.69]","    16.13 [3.50, 38.06]"," 0.118","nonnorm"
"CVLIL8 (median [IQR])","   346.76 [196.06, 750.06]","  1417.04 [1118.11, 2614.44]","   503.43 [206.22, 1111.85]"," 0.074","nonnorm"
"CVLIL1b (median [IQR])","    26.35 [7.81, 61.96]","    98.59 [52.49, 148.89]","    23.53 [11.79, 46.97]"," 0.022","nonnorm"
"CVLElafin (median [IQR])","812554.14 [639321.61, 917667.25]","361725.96 [197167.96, 445641.33]","436150.60 [170098.27, 604981.25]"," 0.007","nonnorm"
"CVLCathepsinB (median [IQR])"," 25581.49 [21057.90, 43871.50]"," 32044.24 [28527.58, 53785.98]"," 33046.46 [26914.46, 43133.37]"," 0.425","nonnorm"
"CVLTSP1 (median [IQR])","     7.81 [7.81, 651.22]","   631.11 [24.11, 1112.80]","   406.75 [217.12, 855.58]"," 0.103","nonnorm"
"CVLHBD2 (median [IQR])"," 24847.81 [9859.49, 80366.82]"," 11050.72 [5259.69, 20272.82]"," 21535.71 [3803.07, 46623.97]"," 0.393","nonnorm"
"CVLSLPI (median [IQR])","201192.43 [79343.74, 766334.30]","154350.21 [44697.40, 232597.49]","287867.86 [143215.75, 452583.55]"," 0.293","nonnorm"
"CVLMMP1 (median [IQR])","     2.65 [2.65, 49.68]","     2.65 [2.65, 58.68]","     2.65 [2.65, 2.65]"," 0.058","nonnorm"
"CVLMMP2 (median [IQR])","   870.48 [870.48, 870.48]","   870.48 [870.48, 870.48]","   870.48 [870.48, 870.48]"," 0.636","nonnorm"
"CVLMMP7 (median [IQR])","   138.39 [35.11, 796.07]","    87.82 [59.28, 217.18]","    64.76 [3.12, 156.74]"," 0.248","nonnorm"
"CVLMMP8 (median [IQR])"," 17352.64 [7874.53, 58115.35]","103437.72 [50268.98, 170140.29]"," 54359.56 [14836.18, 101777.36]"," 0.239","nonnorm"
"CVLMMP9 (median [IQR])","  8407.98 [3024.87, 16705.09]"," 47935.65 [37248.17, 137060.63]"," 13952.97 [3343.98, 31956.02]"," 0.074","nonnorm"
"CVLTIMP1 (median [IQR])","  5770.94 [1619.57, 15736.24]","  7775.89 [3698.96, 10965.51]","  1958.21 [1228.08, 22907.27]"," 0.842","nonnorm"
"CVLTIMP2 (median [IQR])","  6157.18 [2477.87, 9923.79]","  9237.77 [5971.68, 15849.70]","  6675.66 [4543.80, 10172.18]"," 0.367","nonnorm"
"CVLIL1a (median [IQR])","    82.02 [39.98, 182.27]","    67.57 [34.47, 124.69]","    50.72 [35.44, 72.38]"," 0.345","nonnorm"
"CVLMCP1 (median [IQR])","    27.69 [9.43, 218.64]","    59.33 [9.43, 410.68]","    24.77 [0.78, 112.43]"," 0.546","nonnorm"
"CVLIP10 (median [IQR])","    50.11 [15.74, 145.15]","   241.78 [15.74, 412.16]","    27.00 [15.74, 290.12]"," 0.417","nonnorm"
"CVLVEGF (median [IQR])","   100.62 [70.97, 343.19]","   256.07 [203.26, 303.97]","   222.82 [152.70, 268.03]"," 0.184","nonnorm"
"CVLPDGF (median [IQR])","    26.55 [0.09, 153.73]","     0.09 [0.09, 0.09]","     0.09 [0.09, 0.09]"," 0.036","nonnorm"
"CVLFGF (median [IQR])","     4.34 [4.34, 157.61]","     4.34 [4.34, 4.34]","    96.47 [4.34, 311.99]"," 0.155","nonnorm"
"CVLTGFB (median [IQR])","     0.34 [0.34, 79.82]","    49.15 [0.34, 64.47]","     0.52 [0.34, 29.60]"," 0.441","nonnorm"
"CVLProtein (median [IQR])","   272.53 [238.97, 359.03]","   319.79 [286.17, 522.90]","   281.34 [232.20, 392.81]"," 0.593","nonnorm"
"CVLCRP (median [IQR])","    78.23 [53.72, 893.89]","   118.22 [75.96, 580.92]","    84.41 [42.44, 142.20]"," 0.444","nonnorm"
