"","CVLMIP3a","CVLTNFa","CVLIL6","CVLIL8","CVLIL1b","CVLElafin","CVLCathepsinB","CVLTSP1","CVLHBD2","CVLSLPI","CVLMMP1","CVLMMP2","CVLMMP7","CVLMMP8","CVLMMP9","CVLTIMP1","CVLTIMP2","CVLIL1a","CVLMCP1","CVLIP10","CVLVEGF","CVLPDGF","CVLFGF","CVLTGFB","CVLProtein","CVLCRP"
"r_sq",0.133294686455423,0.0491237290273303,0.206906406278196,0.0432896887340915,0.00639602930819784,0.147238251510598,0.0324604048152654,0.00145375955508855,0.0599054827206773,0.0303746314423322,0.000787134158992744,0.0844403190165827,0.0194097790840662,0.00663722445817272,0.140616045050112,0.0435514791227276,0.0912638171583051,0.0118621735021996,0.0218949840702964,0.127402473987931,0.0891141976538823,0.0478546105383691,0.00181152338714046,0.0595047169120068,0.00211989885453818,0.0269823659078989
"adj_r_sq",0.109219538856962,0.0227104992780895,0.184876028674812,0.0167144023100385,-0.0212040809887966,0.12355042516367,0.00558430494902296,-0.0262836360128256,0.0337917461295851,0.00344059342684155,-0.0269687787810351,0.0590081056559323,-0.00782883816359847,-0.0209561859735445,0.116744268523726,0.0169834646539145,0.0660211454127025,-0.0155860994560726,-0.00527459970552857,0.103163653820929,0.0638118142553791,0.0214061274977684,-0.02591593429655,0.0333798479373404,-0.0255989928439466,-4.59017057703459e-05
